%YAML 1.1
%TAG !u! tag:unity3d.com,2011:
--- !u!319 &31900000
AvatarMask:
  m_ObjectHideFlags: 0
  m_CorrespondingSourceObject: {fileID: 0}
  m_PrefabInstance: {fileID: 0}
  m_PrefabAsset: {fileID: 0}
  m_Name: AttackMask
  m_Mask: 00000000010000000100000000000000000000000100000001000000010000000100000000000000000000000100000001000000
  m_Elements:
  - m_Path: 
    m_Weight: 1
  - m_Path: LT
    m_Weight: 1
  - m_Path: QuickRigCharacter_Ctrl_Reference
    m_Weight: 1
  - m_Path: QuickRigCharacter_Ctrl_Reference/QuickRigCharacter_Ctrl_ChestEndEffector
    m_Weight: 1
  - m_Path: QuickRigCharacter_Ctrl_Reference/QuickRigCharacter_Ctrl_ChestOriginEffector
    m_Weight: 1
  - m_Path: QuickRigCharacter_Ctrl_Reference/QuickRigCharacter_Ctrl_HeadEffector
    m_Weight: 1
  - m_Path: QuickRigCharacter_Ctrl_Reference/QuickRigCharacter_Ctrl_Hips
    m_Weight: 1
  - m_Path: QuickRigCharacter_Ctrl_Reference/QuickRigCharacter_Ctrl_Hips/QuickRigCharacter_Ctrl_LeftUpLeg
    m_Weight: 1
  - m_Path: QuickRigCharacter_Ctrl_Reference/QuickRigCharacter_Ctrl_Hips/QuickRigCharacter_Ctrl_LeftUpLeg/QuickRigCharacter_Ctrl_LeftLeg
    m_Weight: 1
  - m_Path: QuickRigCharacter_Ctrl_Reference/QuickRigCharacter_Ctrl_Hips/QuickRigCharacter_Ctrl_LeftUpLeg/QuickRigCharacter_Ctrl_LeftLeg/QuickRigCharacter_Ctrl_LeftFoot
    m_Weight: 1
  - m_Path: QuickRigCharacter_Ctrl_Reference/QuickRigCharacter_Ctrl_Hips/QuickRigCharacter_Ctrl_LeftUpLeg/QuickRigCharacter_Ctrl_LeftLeg/QuickRigCharacter_Ctrl_LeftFoot/QuickRigCharacter_Ctrl_LeftToeBase
    m_Weight: 1
  - m_Path: QuickRigCharacter_Ctrl_Reference/QuickRigCharacter_Ctrl_Hips/QuickRigCharacter_Ctrl_RightUpLeg
    m_Weight: 1
  - m_Path: QuickRigCharacter_Ctrl_Reference/QuickRigCharacter_Ctrl_Hips/QuickRigCharacter_Ctrl_RightUpLeg/QuickRigCharacter_Ctrl_RightLeg
    m_Weight: 1
  - m_Path: QuickRigCharacter_Ctrl_Reference/QuickRigCharacter_Ctrl_Hips/QuickRigCharacter_Ctrl_RightUpLeg/QuickRigCharacter_Ctrl_RightLeg/QuickRigCharacter_Ctrl_RightFoot
    m_Weight: 1
  - m_Path: QuickRigCharacter_Ctrl_Reference/QuickRigCharacter_Ctrl_Hips/QuickRigCharacter_Ctrl_RightUpLeg/QuickRigCharacter_Ctrl_RightLeg/QuickRigCharacter_Ctrl_RightFoot/QuickRigCharacter_Ctrl_RightToeBase
    m_Weight: 1
  - m_Path: QuickRigCharacter_Ctrl_Reference/QuickRigCharacter_Ctrl_Hips/QuickRigCharacter_Ctrl_Spine
    m_Weight: 1
  - m_Path: QuickRigCharacter_Ctrl_Reference/QuickRigCharacter_Ctrl_Hips/QuickRigCharacter_Ctrl_Spine/QuickRigCharacter_Ctrl_Spine1
    m_Weight: 1
  - m_Path: QuickRigCharacter_Ctrl_Reference/QuickRigCharacter_Ctrl_Hips/QuickRigCharacter_Ctrl_Spine/QuickRigCharacter_Ctrl_Spine1/QuickRigCharacter_Ctrl_Spine2
    m_Weight: 1
  - m_Path: QuickRigCharacter_Ctrl_Reference/QuickRigCharacter_Ctrl_Hips/QuickRigCharacter_Ctrl_Spine/QuickRigCharacter_Ctrl_Spine1/QuickRigCharacter_Ctrl_Spine2/QuickRigCharacter_Ctrl_LeftShoulder
    m_Weight: 1
  - m_Path: QuickRigCharacter_Ctrl_Reference/QuickRigCharacter_Ctrl_Hips/QuickRigCharacter_Ctrl_Spine/QuickRigCharacter_Ctrl_Spine1/QuickRigCharacter_Ctrl_Spine2/QuickRigCharacter_Ctrl_LeftShoulder/QuickRigCharacter_Ctrl_LeftArm
    m_Weight: 1
  - m_Path: QuickRigCharacter_Ctrl_Reference/QuickRigCharacter_Ctrl_Hips/QuickRigCharacter_Ctrl_Spine/QuickRigCharacter_Ctrl_Spine1/QuickRigCharacter_Ctrl_Spine2/QuickRigCharacter_Ctrl_LeftShoulder/QuickRigCharacter_Ctrl_LeftArm/QuickRigCharacter_Ctrl_LeftForeArm
    m_Weight: 1
  - m_Path: QuickRigCharacter_Ctrl_Reference/QuickRigCharacter_Ctrl_Hips/QuickRigCharacter_Ctrl_Spine/QuickRigCharacter_Ctrl_Spine1/QuickRigCharacter_Ctrl_Spine2/QuickRigCharacter_Ctrl_LeftShoulder/QuickRigCharacter_Ctrl_LeftArm/QuickRigCharacter_Ctrl_LeftForeArm/QuickRigCharacter_Ctrl_LeftHand
    m_Weight: 1
  - m_Path: QuickRigCharacter_Ctrl_Reference/QuickRigCharacter_Ctrl_Hips/QuickRigCharacter_Ctrl_Spine/QuickRigCharacter_Ctrl_Spine1/QuickRigCharacter_Ctrl_Spine2/QuickRigCharacter_Ctrl_Neck
    m_Weight: 1
  - m_Path: QuickRigCharacter_Ctrl_Reference/QuickRigCharacter_Ctrl_Hips/QuickRigCharacter_Ctrl_Spine/QuickRigCharacter_Ctrl_Spine1/QuickRigCharacter_Ctrl_Spine2/QuickRigCharacter_Ctrl_Neck/QuickRigCharacter_Ctrl_Head
    m_Weight: 1
  - m_Path: QuickRigCharacter_Ctrl_Reference/QuickRigCharacter_Ctrl_Hips/QuickRigCharacter_Ctrl_Spine/QuickRigCharacter_Ctrl_Spine1/QuickRigCharacter_Ctrl_Spine2/QuickRigCharacter_Ctrl_RightShoulder
    m_Weight: 1
  - m_Path: QuickRigCharacter_Ctrl_Reference/QuickRigCharacter_Ctrl_Hips/QuickRigCharacter_Ctrl_Spine/QuickRigCharacter_Ctrl_Spine1/QuickRigCharacter_Ctrl_Spine2/QuickRigCharacter_Ctrl_RightShoulder/QuickRigCharacter_Ctrl_RightArm
    m_Weight: 1
  - m_Path: QuickRigCharacter_Ctrl_Reference/QuickRigCharacter_Ctrl_Hips/QuickRigCharacter_Ctrl_Spine/QuickRigCharacter_Ctrl_Spine1/QuickRigCharacter_Ctrl_Spine2/QuickRigCharacter_Ctrl_RightShoulder/QuickRigCharacter_Ctrl_RightArm/QuickRigCharacter_Ctrl_RightForeArm
    m_Weight: 1
  - m_Path: QuickRigCharacter_Ctrl_Reference/QuickRigCharacter_Ctrl_Hips/QuickRigCharacter_Ctrl_Spine/QuickRigCharacter_Ctrl_Spine1/QuickRigCharacter_Ctrl_Spine2/QuickRigCharacter_Ctrl_RightShoulder/QuickRigCharacter_Ctrl_RightArm/QuickRigCharacter_Ctrl_RightForeArm/QuickRigCharacter_Ctrl_RightHand
    m_Weight: 1
  - m_Path: QuickRigCharacter_Ctrl_Reference/QuickRigCharacter_Ctrl_HipsEffector
    m_Weight: 1
  - m_Path: QuickRigCharacter_Ctrl_Reference/QuickRigCharacter_Ctrl_LeftAnkleEffector
    m_Weight: 1
  - m_Path: QuickRigCharacter_Ctrl_Reference/QuickRigCharacter_Ctrl_LeftElbowEffector
    m_Weight: 1
  - m_Path: QuickRigCharacter_Ctrl_Reference/QuickRigCharacter_Ctrl_LeftFootEffector
    m_Weight: 1
  - m_Path: QuickRigCharacter_Ctrl_Reference/QuickRigCharacter_Ctrl_LeftHipEffector
    m_Weight: 1
  - m_Path: QuickRigCharacter_Ctrl_Reference/QuickRigCharacter_Ctrl_LeftKneeEffector
    m_Weight: 1
  - m_Path: QuickRigCharacter_Ctrl_Reference/QuickRigCharacter_Ctrl_LeftShoulderEffector
    m_Weight: 1
  - m_Path: QuickRigCharacter_Ctrl_Reference/QuickRigCharacter_Ctrl_LeftWristEffector
    m_Weight: 1
  - m_Path: QuickRigCharacter_Ctrl_Reference/QuickRigCharacter_Ctrl_RightAnkleEffector
    m_Weight: 1
  - m_Path: QuickRigCharacter_Ctrl_Reference/QuickRigCharacter_Ctrl_RightElbowEffector
    m_Weight: 1
  - m_Path: QuickRigCharacter_Ctrl_Reference/QuickRigCharacter_Ctrl_RightFootEffector
    m_Weight: 1
  - m_Path: QuickRigCharacter_Ctrl_Reference/QuickRigCharacter_Ctrl_RightHipEffector
    m_Weight: 1
  - m_Path: QuickRigCharacter_Ctrl_Reference/QuickRigCharacter_Ctrl_RightKneeEffector
    m_Weight: 1
  - m_Path: QuickRigCharacter_Ctrl_Reference/QuickRigCharacter_Ctrl_RightShoulderEffector
    m_Weight: 1
  - m_Path: QuickRigCharacter_Ctrl_Reference/QuickRigCharacter_Ctrl_RightWristEffector
    m_Weight: 1
  - m_Path: QuickRigCharacter_Reference
    m_Weight: 1
  - m_Path: QuickRigCharacter_Reference/QuickRigCharacter_Hips
    m_Weight: 1
  - m_Path: QuickRigCharacter_Reference/QuickRigCharacter_Hips/QuickRigCharacter_LeftUpLeg
    m_Weight: 1
  - m_Path: QuickRigCharacter_Reference/QuickRigCharacter_Hips/QuickRigCharacter_LeftUpLeg/QuickRigCharacter_LeftLeg
    m_Weight: 1
  - m_Path: QuickRigCharacter_Reference/QuickRigCharacter_Hips/QuickRigCharacter_LeftUpLeg/QuickRigCharacter_LeftLeg/QuickRigCharacter_LeftFoot
    m_Weight: 1
  - m_Path: QuickRigCharacter_Reference/QuickRigCharacter_Hips/QuickRigCharacter_LeftUpLeg/QuickRigCharacter_LeftLeg/QuickRigCharacter_LeftFoot/QuickRigCharacter_LeftToeBase
    m_Weight: 1
  - m_Path: QuickRigCharacter_Reference/QuickRigCharacter_Hips/QuickRigCharacter_RightUpLeg
    m_Weight: 1
  - m_Path: QuickRigCharacter_Reference/QuickRigCharacter_Hips/QuickRigCharacter_RightUpLeg/QuickRigCharacter_RightLeg
    m_Weight: 1
  - m_Path: QuickRigCharacter_Reference/QuickRigCharacter_Hips/QuickRigCharacter_RightUpLeg/QuickRigCharacter_RightLeg/QuickRigCharacter_RightFoot
    m_Weight: 1
  - m_Path: QuickRigCharacter_Reference/QuickRigCharacter_Hips/QuickRigCharacter_RightUpLeg/QuickRigCharacter_RightLeg/QuickRigCharacter_RightFoot/QuickRigCharacter_RightToeBase
    m_Weight: 1
  - m_Path: QuickRigCharacter_Reference/QuickRigCharacter_Hips/QuickRigCharacter_Spine
    m_Weight: 1
  - m_Path: QuickRigCharacter_Reference/QuickRigCharacter_Hips/QuickRigCharacter_Spine/QuickRigCharacter_Spine1
    m_Weight: 1
  - m_Path: QuickRigCharacter_Reference/QuickRigCharacter_Hips/QuickRigCharacter_Spine/QuickRigCharacter_Spine1/QuickRigCharacter_Spine2
    m_Weight: 1
  - m_Path: QuickRigCharacter_Reference/QuickRigCharacter_Hips/QuickRigCharacter_Spine/QuickRigCharacter_Spine1/QuickRigCharacter_Spine2/QuickRigCharacter_LeftShoulder
    m_Weight: 1
  - m_Path: QuickRigCharacter_Reference/QuickRigCharacter_Hips/QuickRigCharacter_Spine/QuickRigCharacter_Spine1/QuickRigCharacter_Spine2/QuickRigCharacter_LeftShoulder/QuickRigCharacter_LeftArm
    m_Weight: 1
  - m_Path: QuickRigCharacter_Reference/QuickRigCharacter_Hips/QuickRigCharacter_Spine/QuickRigCharacter_Spine1/QuickRigCharacter_Spine2/QuickRigCharacter_LeftShoulder/QuickRigCharacter_LeftArm/QuickRigCharacter_LeftForeArm
    m_Weight: 1
  - m_Path: QuickRigCharacter_Reference/QuickRigCharacter_Hips/QuickRigCharacter_Spine/QuickRigCharacter_Spine1/QuickRigCharacter_Spine2/QuickRigCharacter_LeftShoulder/QuickRigCharacter_LeftArm/QuickRigCharacter_LeftForeArm/QuickRigCharacter_LeftHand
    m_Weight: 1
  - m_Path: QuickRigCharacter_Reference/QuickRigCharacter_Hips/QuickRigCharacter_Spine/QuickRigCharacter_Spine1/QuickRigCharacter_Spine2/QuickRigCharacter_Neck
    m_Weight: 1
  - m_Path: QuickRigCharacter_Reference/QuickRigCharacter_Hips/QuickRigCharacter_Spine/QuickRigCharacter_Spine1/QuickRigCharacter_Spine2/QuickRigCharacter_Neck/QuickRigCharacter_Head
    m_Weight: 1
  - m_Path: QuickRigCharacter_Reference/QuickRigCharacter_Hips/QuickRigCharacter_Spine/QuickRigCharacter_Spine1/QuickRigCharacter_Spine2/QuickRigCharacter_RightShoulder
    m_Weight: 1
  - m_Path: QuickRigCharacter_Reference/QuickRigCharacter_Hips/QuickRigCharacter_Spine/QuickRigCharacter_Spine1/QuickRigCharacter_Spine2/QuickRigCharacter_RightShoulder/QuickRigCharacter_RightArm
    m_Weight: 1
  - m_Path: QuickRigCharacter_Reference/QuickRigCharacter_Hips/QuickRigCharacter_Spine/QuickRigCharacter_Spine1/QuickRigCharacter_Spine2/QuickRigCharacter_RightShoulder/QuickRigCharacter_RightArm/QuickRigCharacter_RightForeArm
    m_Weight: 1
  - m_Path: QuickRigCharacter_Reference/QuickRigCharacter_Hips/QuickRigCharacter_Spine/QuickRigCharacter_Spine1/QuickRigCharacter_Spine2/QuickRigCharacter_RightShoulder/QuickRigCharacter_RightArm/QuickRigCharacter_RightForeArm/QuickRigCharacter_RightHand
    m_Weight: 1
