%YAML 1.1
%TAG !u! tag:unity3d.com,2011:
--- !u!1 &3368163469769691089
GameObject:
  m_ObjectHideFlags: 0
  m_CorrespondingSourceObject: {fileID: 0}
  m_PrefabInstance: {fileID: 0}
  m_PrefabAsset: {fileID: 0}
  serializedVersion: 6
  m_Component:
  - component: {fileID: 7610218340922389823}
  m_Layer: 0
  m_Name: rubble_pillar_temple_01_prefab
  m_TagString: Untagged
  m_Icon: {fileID: 0}
  m_NavMeshLayer: 0
  m_StaticEditorFlags: 0
  m_IsActive: 1
--- !u!4 &7610218340922389823
Transform:
  m_ObjectHideFlags: 0
  m_CorrespondingSourceObject: {fileID: 0}
  m_PrefabInstance: {fileID: 0}
  m_PrefabAsset: {fileID: 0}
  m_GameObject: {fileID: 3368163469769691089}
  m_LocalRotation: {x: -0, y: -0, z: -0, w: 1}
  m_LocalPosition: {x: 0, y: 0, z: 0}
  m_LocalScale: {x: 2, y: 2, z: 2}
  m_Children:
  - {fileID: 5722085500784855411}
  m_Father: {fileID: 0}
  m_RootOrder: 0
  m_LocalEulerAnglesHint: {x: 0, y: 0, z: 0}
--- !u!208 &5302656150733752512
NavMeshObstacle:
  m_ObjectHideFlags: 0
  m_CorrespondingSourceObject: {fileID: 0}
  m_PrefabInstance: {fileID: 0}
  m_PrefabAsset: {fileID: 0}
  m_GameObject: {fileID: 6657302770771828236}
  m_Enabled: 1
  serializedVersion: 3
  m_Shape: 1
  m_Extents: {x: 54.325, y: 18.038, z: 75}
  m_MoveThreshold: 0.1
  m_Carve: 0
  m_CarveOnlyStationary: 1
  m_Center: {x: 0, y: 0, z: 50}
  m_TimeToStationary: 0.5
--- !u!65 &8656207667133027169
BoxCollider:
  m_ObjectHideFlags: 0
  m_CorrespondingSourceObject: {fileID: 0}
  m_PrefabInstance: {fileID: 0}
  m_PrefabAsset: {fileID: 0}
  m_GameObject: {fileID: 6657302770771828236}
  m_Material: {fileID: 0}
  m_IsTrigger: 0
  m_Enabled: 1
  serializedVersion: 2
  m_Size: {x: 108.65084, y: 36.075043, z: 150}
  m_Center: {x: 0, y: 0, z: 50}
--- !u!1001 &725742256432636521
PrefabInstance:
  m_ObjectHideFlags: 0
  serializedVersion: 2
  m_Modification:
    m_TransformParent: {fileID: 7610218340922389823}
    m_Modifications:
    - target: {fileID: -927199367670048503, guid: f90196d86da2b7d448b78fc9345b8f8b,
        type: 3}
      propertyPath: m_Name
      value: rubble_pillar_temple_01_model
      objectReference: {fileID: 0}
    - target: {fileID: -4216859302048453862, guid: f90196d86da2b7d448b78fc9345b8f8b,
        type: 3}
      propertyPath: m_LocalPosition.x
      value: 0
      objectReference: {fileID: 0}
    - target: {fileID: -4216859302048453862, guid: f90196d86da2b7d448b78fc9345b8f8b,
        type: 3}
      propertyPath: m_LocalPosition.y
      value: 0
      objectReference: {fileID: 0}
    - target: {fileID: -4216859302048453862, guid: f90196d86da2b7d448b78fc9345b8f8b,
        type: 3}
      propertyPath: m_LocalPosition.z
      value: 0
      objectReference: {fileID: 0}
    - target: {fileID: -4216859302048453862, guid: f90196d86da2b7d448b78fc9345b8f8b,
        type: 3}
      propertyPath: m_LocalRotation.x
      value: -0
      objectReference: {fileID: 0}
    - target: {fileID: -4216859302048453862, guid: f90196d86da2b7d448b78fc9345b8f8b,
        type: 3}
      propertyPath: m_LocalRotation.y
      value: -0
      objectReference: {fileID: 0}
    - target: {fileID: -4216859302048453862, guid: f90196d86da2b7d448b78fc9345b8f8b,
        type: 3}
      propertyPath: m_LocalRotation.z
      value: -0.030538544
      objectReference: {fileID: 0}
    - target: {fileID: -4216859302048453862, guid: f90196d86da2b7d448b78fc9345b8f8b,
        type: 3}
      propertyPath: m_LocalRotation.w
      value: 0.99953365
      objectReference: {fileID: 0}
    - target: {fileID: -4216859302048453862, guid: f90196d86da2b7d448b78fc9345b8f8b,
        type: 3}
      propertyPath: m_RootOrder
      value: 0
      objectReference: {fileID: 0}
    - target: {fileID: -4216859302048453862, guid: f90196d86da2b7d448b78fc9345b8f8b,
        type: 3}
      propertyPath: m_LocalEulerAnglesHint.x
      value: 0
      objectReference: {fileID: 0}
    - target: {fileID: -4216859302048453862, guid: f90196d86da2b7d448b78fc9345b8f8b,
        type: 3}
      propertyPath: m_LocalEulerAnglesHint.y
      value: 0
      objectReference: {fileID: 0}
    - target: {fileID: -4216859302048453862, guid: f90196d86da2b7d448b78fc9345b8f8b,
        type: 3}
      propertyPath: m_LocalEulerAnglesHint.z
      value: -3.5
      objectReference: {fileID: 0}
    - target: {fileID: -6283877591383234665, guid: f90196d86da2b7d448b78fc9345b8f8b,
        type: 3}
      propertyPath: m_Materials.Array.data[0]
      value: 
      objectReference: {fileID: 2100000, guid: 4902aa7f1b16d6649b2ece7225188bbc, type: 2}
    m_RemovedComponents: []
  m_SourcePrefab: {fileID: 100100000, guid: f90196d86da2b7d448b78fc9345b8f8b, type: 3}
--- !u!4 &5722085500784855411 stripped
Transform:
  m_CorrespondingSourceObject: {fileID: -4216859302048453862, guid: f90196d86da2b7d448b78fc9345b8f8b,
    type: 3}
  m_PrefabInstance: {fileID: 725742256432636521}
  m_PrefabAsset: {fileID: 0}
--- !u!1 &6657302770771828236 stripped
GameObject:
  m_CorrespondingSourceObject: {fileID: -2994569234417419163, guid: f90196d86da2b7d448b78fc9345b8f8b,
    type: 3}
  m_PrefabInstance: {fileID: 725742256432636521}
  m_PrefabAsset: {fileID: 0}
