%YAML 1.1
%TAG !u! tag:unity3d.com,2011:
--- !u!114 &11400000
MonoBehaviour:
  m_ObjectHideFlags: 0
  m_CorrespondingSourceObject: {fileID: 0}
  m_PrefabInstance: {fileID: 0}
  m_PrefabAsset: {fileID: 0}
  m_GameObject: {fileID: 0}
  m_Enabled: 1
  m_EditorHideFlags: 0
  m_Script: {fileID: 11500000, guid: f6579b35685fd3440bc9093304f030cd, type: 3}
  m_Name: MechBasic
  m_EditorClassIdentifier: 
  type: 208
  clip: {fileID: 8300000, guid: f456eddfdee84a74f89414b7487d9de2, type: 3}
  volume: 1
  loop: 0
