%YAML 1.1
%TAG !u! tag:unity3d.com,2011:
--- !u!1 &4173793355655399659
GameObject:
  m_ObjectHideFlags: 0
  m_CorrespondingSourceObject: {fileID: 0}
  m_PrefabInstance: {fileID: 0}
  m_PrefabAsset: {fileID: 0}
  serializedVersion: 6
  m_Component:
  - component: {fileID: 7543892285574805666}
  m_Layer: 0
  m_Name: grail_swordinstone_prefab
  m_TagString: Untagged
  m_Icon: {fileID: 0}
  m_NavMeshLayer: 0
  m_StaticEditorFlags: 0
  m_IsActive: 1
--- !u!4 &7543892285574805666
Transform:
  m_ObjectHideFlags: 0
  m_CorrespondingSourceObject: {fileID: 0}
  m_PrefabInstance: {fileID: 0}
  m_PrefabAsset: {fileID: 0}
  m_GameObject: {fileID: 4173793355655399659}
  m_LocalRotation: {x: -0, y: -0, z: -0, w: 1}
  m_LocalPosition: {x: 0, y: 0, z: 0}
  m_LocalScale: {x: 1, y: 1, z: 1}
  m_Children:
  - {fileID: 4224895861528494767}
  m_Father: {fileID: 0}
  m_RootOrder: 0
  m_LocalEulerAnglesHint: {x: 0, y: 0, z: 0}
--- !u!208 &4464069464604509018
NavMeshObstacle:
  m_ObjectHideFlags: 0
  m_CorrespondingSourceObject: {fileID: 0}
  m_PrefabInstance: {fileID: 0}
  m_PrefabAsset: {fileID: 0}
  m_GameObject: {fileID: 5434484784878565811}
  m_Enabled: 1
  serializedVersion: 3
  m_Shape: 1
  m_Extents: {x: 0.026, y: 0.047000002, z: 0.015000001}
  m_MoveThreshold: 0.1
  m_Carve: 0
  m_CarveOnlyStationary: 1
  m_Center: {x: 0, y: 0.003, z: 0}
  m_TimeToStationary: 0.5
--- !u!65 &1800985585920666954
BoxCollider:
  m_ObjectHideFlags: 0
  m_CorrespondingSourceObject: {fileID: 0}
  m_PrefabInstance: {fileID: 0}
  m_PrefabAsset: {fileID: 0}
  m_GameObject: {fileID: 5434484784878565811}
  m_Material: {fileID: 0}
  m_IsTrigger: 0
  m_Enabled: 1
  serializedVersion: 2
  m_Size: {x: 0.051502474, y: 0.09301574, z: 0.030402502}
  m_Center: {x: 0, y: 0.0028716421, z: 0}
--- !u!1001 &9213076932851476917
PrefabInstance:
  m_ObjectHideFlags: 0
  serializedVersion: 2
  m_Modification:
    m_TransformParent: {fileID: 7543892285574805666}
    m_Modifications:
    - target: {fileID: -927199367670048503, guid: 4126cce3edbcb304ab2acf7d01d29b41,
        type: 3}
      propertyPath: m_Name
      value: grail_swordinstone_model
      objectReference: {fileID: 0}
    - target: {fileID: -4216859302048453862, guid: 4126cce3edbcb304ab2acf7d01d29b41,
        type: 3}
      propertyPath: m_LocalPosition.x
      value: 0
      objectReference: {fileID: 0}
    - target: {fileID: -4216859302048453862, guid: 4126cce3edbcb304ab2acf7d01d29b41,
        type: 3}
      propertyPath: m_LocalPosition.y
      value: -0.084643
      objectReference: {fileID: 0}
    - target: {fileID: -4216859302048453862, guid: 4126cce3edbcb304ab2acf7d01d29b41,
        type: 3}
      propertyPath: m_LocalPosition.z
      value: 0
      objectReference: {fileID: 0}
    - target: {fileID: -4216859302048453862, guid: 4126cce3edbcb304ab2acf7d01d29b41,
        type: 3}
      propertyPath: m_LocalRotation.x
      value: -0
      objectReference: {fileID: 0}
    - target: {fileID: -4216859302048453862, guid: 4126cce3edbcb304ab2acf7d01d29b41,
        type: 3}
      propertyPath: m_LocalRotation.y
      value: -0
      objectReference: {fileID: 0}
    - target: {fileID: -4216859302048453862, guid: 4126cce3edbcb304ab2acf7d01d29b41,
        type: 3}
      propertyPath: m_LocalRotation.z
      value: -0
      objectReference: {fileID: 0}
    - target: {fileID: -4216859302048453862, guid: 4126cce3edbcb304ab2acf7d01d29b41,
        type: 3}
      propertyPath: m_LocalRotation.w
      value: 1
      objectReference: {fileID: 0}
    - target: {fileID: -4216859302048453862, guid: 4126cce3edbcb304ab2acf7d01d29b41,
        type: 3}
      propertyPath: m_RootOrder
      value: 0
      objectReference: {fileID: 0}
    - target: {fileID: -4216859302048453862, guid: 4126cce3edbcb304ab2acf7d01d29b41,
        type: 3}
      propertyPath: m_LocalEulerAnglesHint.x
      value: 0
      objectReference: {fileID: 0}
    - target: {fileID: -4216859302048453862, guid: 4126cce3edbcb304ab2acf7d01d29b41,
        type: 3}
      propertyPath: m_LocalEulerAnglesHint.y
      value: 0
      objectReference: {fileID: 0}
    - target: {fileID: -4216859302048453862, guid: 4126cce3edbcb304ab2acf7d01d29b41,
        type: 3}
      propertyPath: m_LocalEulerAnglesHint.z
      value: 0
      objectReference: {fileID: 0}
    - target: {fileID: -4216859302048453862, guid: 4126cce3edbcb304ab2acf7d01d29b41,
        type: 3}
      propertyPath: m_LocalScale.x
      value: 9
      objectReference: {fileID: 0}
    - target: {fileID: -4216859302048453862, guid: 4126cce3edbcb304ab2acf7d01d29b41,
        type: 3}
      propertyPath: m_LocalScale.y
      value: 9
      objectReference: {fileID: 0}
    - target: {fileID: -4216859302048453862, guid: 4126cce3edbcb304ab2acf7d01d29b41,
        type: 3}
      propertyPath: m_LocalScale.z
      value: 9
      objectReference: {fileID: 0}
    - target: {fileID: 6200443131042155592, guid: 4126cce3edbcb304ab2acf7d01d29b41,
        type: 3}
      propertyPath: m_Materials.Array.data[0]
      value: 
      objectReference: {fileID: 2100000, guid: 5003f643761fbcb4fad128339028e17b, type: 2}
    m_RemovedComponents: []
  m_SourcePrefab: {fileID: 100100000, guid: 4126cce3edbcb304ab2acf7d01d29b41, type: 3}
--- !u!4 &4224895861528494767 stripped
Transform:
  m_CorrespondingSourceObject: {fileID: -4216859302048453862, guid: 4126cce3edbcb304ab2acf7d01d29b41,
    type: 3}
  m_PrefabInstance: {fileID: 9213076932851476917}
  m_PrefabAsset: {fileID: 0}
--- !u!1 &5434484784878565811 stripped
GameObject:
  m_CorrespondingSourceObject: {fileID: -5426758703216422906, guid: 4126cce3edbcb304ab2acf7d01d29b41,
    type: 3}
  m_PrefabInstance: {fileID: 9213076932851476917}
  m_PrefabAsset: {fileID: 0}
