%YAML 1.1
%TAG !u! tag:unity3d.com,2011:
--- !u!114 &11400000
MonoBehaviour:
  m_ObjectHideFlags: 0
  m_CorrespondingSourceObject: {fileID: 0}
  m_PrefabInstance: {fileID: 0}
  m_PrefabAsset: {fileID: 0}
  m_GameObject: {fileID: 0}
  m_Enabled: 1
  m_EditorHideFlags: 0
  m_Script: {fileID: 11500000, guid: f6579b35685fd3440bc9093304f030cd, type: 3}
  m_Name: LightBasic
  m_EditorClassIdentifier: 
  type: 212
  clip: {fileID: 8300000, guid: 9fb6a1ee8fc2d1d42b25a78ea8b3004d, type: 3}
  volume: 1
  loop: 0
