%YAML 1.1
%TAG !u! tag:unity3d.com,2011:
--- !u!1 &3486673160887615039
GameObject:
  m_ObjectHideFlags: 0
  m_CorrespondingSourceObject: {fileID: 0}
  m_PrefabInstance: {fileID: 0}
  m_PrefabAsset: {fileID: 0}
  serializedVersion: 6
  m_Component:
  - component: {fileID: 1285899422270464682}
  m_Layer: 0
  m_Name: grail_mech_prefab
  m_TagString: Untagged
  m_Icon: {fileID: 0}
  m_NavMeshLayer: 0
  m_StaticEditorFlags: 0
  m_IsActive: 1
--- !u!4 &1285899422270464682
Transform:
  m_ObjectHideFlags: 0
  m_CorrespondingSourceObject: {fileID: 0}
  m_PrefabInstance: {fileID: 0}
  m_PrefabAsset: {fileID: 0}
  m_GameObject: {fileID: 3486673160887615039}
  m_LocalRotation: {x: -0, y: -0, z: -0, w: 1}
  m_LocalPosition: {x: 0, y: 0, z: 0}
  m_LocalScale: {x: 1, y: 1, z: 1}
  m_Children:
  - {fileID: 4994584969667075778}
  m_Father: {fileID: 0}
  m_RootOrder: 0
  m_LocalEulerAnglesHint: {x: 0, y: 0, z: 0}
--- !u!65 &2959813817197109072
BoxCollider:
  m_ObjectHideFlags: 0
  m_CorrespondingSourceObject: {fileID: 0}
  m_PrefabInstance: {fileID: 0}
  m_PrefabAsset: {fileID: 0}
  m_GameObject: {fileID: 8289734149142752465}
  m_Material: {fileID: 0}
  m_IsTrigger: 0
  m_Enabled: 1
  serializedVersion: 2
  m_Size: {x: 0.23580357, y: 0.29005343, z: 0.2973742}
  m_Center: {x: 0, y: 0, z: 0}
--- !u!1001 &12068650938496472
PrefabInstance:
  m_ObjectHideFlags: 0
  serializedVersion: 2
  m_Modification:
    m_TransformParent: {fileID: 1285899422270464682}
    m_Modifications:
    - target: {fileID: -927199367670048503, guid: dc7fe96fe0e6f9045be73adee45fe942,
        type: 3}
      propertyPath: m_Name
      value: grail_mech_model
      objectReference: {fileID: 0}
    - target: {fileID: -5178661895559278292, guid: dc7fe96fe0e6f9045be73adee45fe942,
        type: 3}
      propertyPath: m_Mesh
      value: 
      objectReference: {fileID: -8662219815243067617, guid: e314fcb13bc3fb24e878efced305372e,
        type: 3}
    - target: {fileID: -4216859302048453862, guid: dc7fe96fe0e6f9045be73adee45fe942,
        type: 3}
      propertyPath: m_LocalPosition.x
      value: 0
      objectReference: {fileID: 0}
    - target: {fileID: -4216859302048453862, guid: dc7fe96fe0e6f9045be73adee45fe942,
        type: 3}
      propertyPath: m_LocalPosition.y
      value: 0.43508
      objectReference: {fileID: 0}
    - target: {fileID: -4216859302048453862, guid: dc7fe96fe0e6f9045be73adee45fe942,
        type: 3}
      propertyPath: m_LocalPosition.z
      value: 0
      objectReference: {fileID: 0}
    - target: {fileID: -4216859302048453862, guid: dc7fe96fe0e6f9045be73adee45fe942,
        type: 3}
      propertyPath: m_LocalRotation.x
      value: -0
      objectReference: {fileID: 0}
    - target: {fileID: -4216859302048453862, guid: dc7fe96fe0e6f9045be73adee45fe942,
        type: 3}
      propertyPath: m_LocalRotation.y
      value: -0
      objectReference: {fileID: 0}
    - target: {fileID: -4216859302048453862, guid: dc7fe96fe0e6f9045be73adee45fe942,
        type: 3}
      propertyPath: m_LocalRotation.z
      value: -0
      objectReference: {fileID: 0}
    - target: {fileID: -4216859302048453862, guid: dc7fe96fe0e6f9045be73adee45fe942,
        type: 3}
      propertyPath: m_LocalRotation.w
      value: 1
      objectReference: {fileID: 0}
    - target: {fileID: -4216859302048453862, guid: dc7fe96fe0e6f9045be73adee45fe942,
        type: 3}
      propertyPath: m_RootOrder
      value: 0
      objectReference: {fileID: 0}
    - target: {fileID: -4216859302048453862, guid: dc7fe96fe0e6f9045be73adee45fe942,
        type: 3}
      propertyPath: m_LocalEulerAnglesHint.x
      value: 0
      objectReference: {fileID: 0}
    - target: {fileID: -4216859302048453862, guid: dc7fe96fe0e6f9045be73adee45fe942,
        type: 3}
      propertyPath: m_LocalEulerAnglesHint.y
      value: 0
      objectReference: {fileID: 0}
    - target: {fileID: -4216859302048453862, guid: dc7fe96fe0e6f9045be73adee45fe942,
        type: 3}
      propertyPath: m_LocalEulerAnglesHint.z
      value: 0
      objectReference: {fileID: 0}
    - target: {fileID: -4216859302048453862, guid: dc7fe96fe0e6f9045be73adee45fe942,
        type: 3}
      propertyPath: m_LocalScale.x
      value: 3
      objectReference: {fileID: 0}
    - target: {fileID: -4216859302048453862, guid: dc7fe96fe0e6f9045be73adee45fe942,
        type: 3}
      propertyPath: m_LocalScale.y
      value: 3
      objectReference: {fileID: 0}
    - target: {fileID: -4216859302048453862, guid: dc7fe96fe0e6f9045be73adee45fe942,
        type: 3}
      propertyPath: m_LocalScale.z
      value: 3
      objectReference: {fileID: 0}
    - target: {fileID: -1504981713932161579, guid: dc7fe96fe0e6f9045be73adee45fe942,
        type: 3}
      propertyPath: m_Materials.Array.data[0]
      value: 
      objectReference: {fileID: 2100000, guid: dd458e2aceef31f4f88907d8e51caf15, type: 2}
    m_RemovedComponents: []
  m_SourcePrefab: {fileID: 100100000, guid: dc7fe96fe0e6f9045be73adee45fe942, type: 3}
--- !u!1 &8289734149142752465 stripped
GameObject:
  m_CorrespondingSourceObject: {fileID: -927199367670048503, guid: dc7fe96fe0e6f9045be73adee45fe942,
    type: 3}
  m_PrefabInstance: {fileID: 12068650938496472}
  m_PrefabAsset: {fileID: 0}
--- !u!4 &4994584969667075778 stripped
Transform:
  m_CorrespondingSourceObject: {fileID: -4216859302048453862, guid: dc7fe96fe0e6f9045be73adee45fe942,
    type: 3}
  m_PrefabInstance: {fileID: 12068650938496472}
  m_PrefabAsset: {fileID: 0}
