%YAML 1.1
%TAG !u! tag:unity3d.com,2011:
--- !u!1 &3842835631784183321
GameObject:
  m_ObjectHideFlags: 0
  m_CorrespondingSourceObject: {fileID: 0}
  m_PrefabInstance: {fileID: 0}
  m_PrefabAsset: {fileID: 0}
  serializedVersion: 6
  m_Component:
  - component: {fileID: 5898836243561360261}
  m_Layer: 0
  m_Name: fountain_healing_var1_prefab
  m_TagString: Untagged
  m_Icon: {fileID: 0}
  m_NavMeshLayer: 0
  m_StaticEditorFlags: 0
  m_IsActive: 1
--- !u!4 &5898836243561360261
Transform:
  m_ObjectHideFlags: 0
  m_CorrespondingSourceObject: {fileID: 0}
  m_PrefabInstance: {fileID: 0}
  m_PrefabAsset: {fileID: 0}
  m_GameObject: {fileID: 3842835631784183321}
  m_LocalRotation: {x: -0, y: -0, z: -0, w: 1}
  m_LocalPosition: {x: 0, y: 0, z: 0}
  m_LocalScale: {x: 1, y: 1, z: 1}
  m_Children:
  - {fileID: 6383743728603849495}
  m_Father: {fileID: 0}
  m_RootOrder: 0
  m_LocalEulerAnglesHint: {x: 0, y: 0, z: 0}
--- !u!208 &3512483870073338781
NavMeshObstacle:
  m_ObjectHideFlags: 0
  m_CorrespondingSourceObject: {fileID: 0}
  m_PrefabInstance: {fileID: 0}
  m_PrefabAsset: {fileID: 0}
  m_GameObject: {fileID: 5448246083604624488}
  m_Enabled: 1
  serializedVersion: 3
  m_Shape: 1
  m_Extents: {x: 0.021000002, y: 0.013, z: 0.021000002}
  m_MoveThreshold: 0.1
  m_Carve: 0
  m_CarveOnlyStationary: 1
  m_Center: {x: 0, y: 0, z: 0}
  m_TimeToStationary: 0.5
--- !u!65 &4058735433850815007
BoxCollider:
  m_ObjectHideFlags: 0
  m_CorrespondingSourceObject: {fileID: 0}
  m_PrefabInstance: {fileID: 0}
  m_PrefabAsset: {fileID: 0}
  m_GameObject: {fileID: 5448246083604624488}
  m_Material: {fileID: 0}
  m_IsTrigger: 0
  m_Enabled: 1
  serializedVersion: 2
  m_Size: {x: 0.042309, y: 0.025550103, z: 0.042309}
  m_Center: {x: 0, y: 0, z: 0}
--- !u!1001 &2156425803214538765
PrefabInstance:
  m_ObjectHideFlags: 0
  serializedVersion: 2
  m_Modification:
    m_TransformParent: {fileID: 5898836243561360261}
    m_Modifications:
    - target: {fileID: -927199367670048503, guid: db2b3acc2042b294f81399a3ea110ea7,
        type: 3}
      propertyPath: m_Name
      value: fountain_healing_model
      objectReference: {fileID: 0}
    - target: {fileID: -6283877591383234665, guid: db2b3acc2042b294f81399a3ea110ea7,
        type: 3}
      propertyPath: m_Materials.Array.data[0]
      value: 
      objectReference: {fileID: 2100000, guid: f7a94ac013e6ffd4486cb6d7b41b1c4c, type: 2}
    - target: {fileID: -4216859302048453862, guid: db2b3acc2042b294f81399a3ea110ea7,
        type: 3}
      propertyPath: m_LocalPosition.x
      value: 0
      objectReference: {fileID: 0}
    - target: {fileID: -4216859302048453862, guid: db2b3acc2042b294f81399a3ea110ea7,
        type: 3}
      propertyPath: m_LocalPosition.y
      value: 0.30525
      objectReference: {fileID: 0}
    - target: {fileID: -4216859302048453862, guid: db2b3acc2042b294f81399a3ea110ea7,
        type: 3}
      propertyPath: m_LocalPosition.z
      value: 0
      objectReference: {fileID: 0}
    - target: {fileID: -4216859302048453862, guid: db2b3acc2042b294f81399a3ea110ea7,
        type: 3}
      propertyPath: m_LocalRotation.x
      value: -0
      objectReference: {fileID: 0}
    - target: {fileID: -4216859302048453862, guid: db2b3acc2042b294f81399a3ea110ea7,
        type: 3}
      propertyPath: m_LocalRotation.y
      value: -0
      objectReference: {fileID: 0}
    - target: {fileID: -4216859302048453862, guid: db2b3acc2042b294f81399a3ea110ea7,
        type: 3}
      propertyPath: m_LocalRotation.z
      value: -0
      objectReference: {fileID: 0}
    - target: {fileID: -4216859302048453862, guid: db2b3acc2042b294f81399a3ea110ea7,
        type: 3}
      propertyPath: m_LocalRotation.w
      value: 1
      objectReference: {fileID: 0}
    - target: {fileID: -4216859302048453862, guid: db2b3acc2042b294f81399a3ea110ea7,
        type: 3}
      propertyPath: m_RootOrder
      value: 0
      objectReference: {fileID: 0}
    - target: {fileID: -4216859302048453862, guid: db2b3acc2042b294f81399a3ea110ea7,
        type: 3}
      propertyPath: m_LocalEulerAnglesHint.x
      value: 0
      objectReference: {fileID: 0}
    - target: {fileID: -4216859302048453862, guid: db2b3acc2042b294f81399a3ea110ea7,
        type: 3}
      propertyPath: m_LocalEulerAnglesHint.y
      value: 0
      objectReference: {fileID: 0}
    - target: {fileID: -4216859302048453862, guid: db2b3acc2042b294f81399a3ea110ea7,
        type: 3}
      propertyPath: m_LocalEulerAnglesHint.z
      value: 0
      objectReference: {fileID: 0}
    - target: {fileID: -4216859302048453862, guid: db2b3acc2042b294f81399a3ea110ea7,
        type: 3}
      propertyPath: m_LocalScale.x
      value: 100
      objectReference: {fileID: 0}
    - target: {fileID: -4216859302048453862, guid: db2b3acc2042b294f81399a3ea110ea7,
        type: 3}
      propertyPath: m_LocalScale.y
      value: 100
      objectReference: {fileID: 0}
    - target: {fileID: -4216859302048453862, guid: db2b3acc2042b294f81399a3ea110ea7,
        type: 3}
      propertyPath: m_LocalScale.z
      value: 100
      objectReference: {fileID: 0}
    m_RemovedComponents: []
  m_SourcePrefab: {fileID: 100100000, guid: db2b3acc2042b294f81399a3ea110ea7, type: 3}
--- !u!4 &6383743728603849495 stripped
Transform:
  m_CorrespondingSourceObject: {fileID: -4216859302048453862, guid: db2b3acc2042b294f81399a3ea110ea7,
    type: 3}
  m_PrefabInstance: {fileID: 2156425803214538765}
  m_PrefabAsset: {fileID: 0}
--- !u!1 &5448246083604624488 stripped
GameObject:
  m_CorrespondingSourceObject: {fileID: -2994569234417419163, guid: db2b3acc2042b294f81399a3ea110ea7,
    type: 3}
  m_PrefabInstance: {fileID: 2156425803214538765}
  m_PrefabAsset: {fileID: 0}
