%YAML 1.1
%TAG !u! tag:unity3d.com,2011:
--- !u!1045 &1
EditorBuildSettings:
  m_ObjectHideFlags: 0
  serializedVersion: 2
  m_Scenes:
  - enabled: 1
    path: Assets/Scenes/Main Menu.unity
    guid: b823cc5672510194ba8359e83c4f4dd0
  - enabled: 1
    path: Assets/Scenes/Beta_MAIN.unity
    guid: 3f30d398decc54440a145eec418c2ee7
  - enabled: 1
    path: Assets/Scenes/Level2.unity
    guid: 2b77802797232fc438ad6bace506a100
  - enabled: 1
    path: Assets/Scenes/Level3.unity
    guid: 9ff44c2619331d04fab1e6c5f044a897
  - enabled: 1
    path: Assets/Scenes/DemonLevel.unity
    guid: 2cb89492d0f2c8d449cf8ec01b9f7075
  - enabled: 1
    path: Assets/Scenes/Game Win.unity
    guid: 59424d1bd5f7f9840891133b88c868c0
  m_configObjects: {}
