%YAML 1.1
%TAG !u! tag:unity3d.com,2011:
--- !u!208 &707318397426093875
NavMeshObstacle:
  m_ObjectHideFlags: 0
  m_CorrespondingSourceObject: {fileID: 0}
  m_PrefabInstance: {fileID: 0}
  m_PrefabAsset: {fileID: 0}
  m_GameObject: {fileID: 881437580927008943}
  m_Enabled: 1
  serializedVersion: 3
  m_Shape: 1
  m_Extents: {x: 0.044000003, y: 0.032, z: 0.041}
  m_MoveThreshold: 0.1
  m_Carve: 0
  m_CarveOnlyStationary: 1
  m_Center: {x: 0, y: 0, z: 0}
  m_TimeToStationary: 0.5
--- !u!65 &292954529792894577
BoxCollider:
  m_ObjectHideFlags: 0
  m_CorrespondingSourceObject: {fileID: 0}
  m_PrefabInstance: {fileID: 0}
  m_PrefabAsset: {fileID: 0}
  m_GameObject: {fileID: 881437580927008943}
  m_Material: {fileID: 0}
  m_IsTrigger: 0
  m_Enabled: 1
  serializedVersion: 2
  m_Size: {x: 0.08761994, y: 0.06403671, z: 0.08219276}
  m_Center: {x: 0, y: -0.00014234707, z: -0.0000000037252903}
--- !u!1 &7204487646761664951
GameObject:
  m_ObjectHideFlags: 0
  m_CorrespondingSourceObject: {fileID: 0}
  m_PrefabInstance: {fileID: 0}
  m_PrefabAsset: {fileID: 0}
  serializedVersion: 6
  m_Component:
  - component: {fileID: 567065066156170135}
  m_Layer: 0
  m_Name: stairs_var2_prefab
  m_TagString: Untagged
  m_Icon: {fileID: 0}
  m_NavMeshLayer: 0
  m_StaticEditorFlags: 0
  m_IsActive: 1
--- !u!4 &567065066156170135
Transform:
  m_ObjectHideFlags: 0
  m_CorrespondingSourceObject: {fileID: 0}
  m_PrefabInstance: {fileID: 0}
  m_PrefabAsset: {fileID: 0}
  m_GameObject: {fileID: 7204487646761664951}
  m_LocalRotation: {x: -0, y: -0, z: -0, w: 1}
  m_LocalPosition: {x: 0, y: 0, z: 0}
  m_LocalScale: {x: 1, y: 1, z: 1}
  m_Children:
  - {fileID: 9116827971314920474}
  m_Father: {fileID: 0}
  m_RootOrder: 0
  m_LocalEulerAnglesHint: {x: 0, y: 0, z: 0}
--- !u!1001 &4323401156942071552
PrefabInstance:
  m_ObjectHideFlags: 0
  serializedVersion: 2
  m_Modification:
    m_TransformParent: {fileID: 567065066156170135}
    m_Modifications:
    - target: {fileID: -927199367670048503, guid: 04b48ac95ed5c634f8d9a4a00d11b0f3,
        type: 3}
      propertyPath: m_Name
      value: stairs_model
      objectReference: {fileID: 0}
    - target: {fileID: -4216859302048453862, guid: 04b48ac95ed5c634f8d9a4a00d11b0f3,
        type: 3}
      propertyPath: m_LocalPosition.x
      value: 0
      objectReference: {fileID: 0}
    - target: {fileID: -4216859302048453862, guid: 04b48ac95ed5c634f8d9a4a00d11b0f3,
        type: 3}
      propertyPath: m_LocalPosition.y
      value: 0.25
      objectReference: {fileID: 0}
    - target: {fileID: -4216859302048453862, guid: 04b48ac95ed5c634f8d9a4a00d11b0f3,
        type: 3}
      propertyPath: m_LocalPosition.z
      value: 0
      objectReference: {fileID: 0}
    - target: {fileID: -4216859302048453862, guid: 04b48ac95ed5c634f8d9a4a00d11b0f3,
        type: 3}
      propertyPath: m_LocalRotation.x
      value: -0
      objectReference: {fileID: 0}
    - target: {fileID: -4216859302048453862, guid: 04b48ac95ed5c634f8d9a4a00d11b0f3,
        type: 3}
      propertyPath: m_LocalRotation.y
      value: -0
      objectReference: {fileID: 0}
    - target: {fileID: -4216859302048453862, guid: 04b48ac95ed5c634f8d9a4a00d11b0f3,
        type: 3}
      propertyPath: m_LocalRotation.z
      value: -0
      objectReference: {fileID: 0}
    - target: {fileID: -4216859302048453862, guid: 04b48ac95ed5c634f8d9a4a00d11b0f3,
        type: 3}
      propertyPath: m_LocalRotation.w
      value: 1
      objectReference: {fileID: 0}
    - target: {fileID: -4216859302048453862, guid: 04b48ac95ed5c634f8d9a4a00d11b0f3,
        type: 3}
      propertyPath: m_RootOrder
      value: 0
      objectReference: {fileID: 0}
    - target: {fileID: -4216859302048453862, guid: 04b48ac95ed5c634f8d9a4a00d11b0f3,
        type: 3}
      propertyPath: m_LocalEulerAnglesHint.x
      value: 0
      objectReference: {fileID: 0}
    - target: {fileID: -4216859302048453862, guid: 04b48ac95ed5c634f8d9a4a00d11b0f3,
        type: 3}
      propertyPath: m_LocalEulerAnglesHint.y
      value: 0
      objectReference: {fileID: 0}
    - target: {fileID: -4216859302048453862, guid: 04b48ac95ed5c634f8d9a4a00d11b0f3,
        type: 3}
      propertyPath: m_LocalEulerAnglesHint.z
      value: 0
      objectReference: {fileID: 0}
    - target: {fileID: -4216859302048453862, guid: 04b48ac95ed5c634f8d9a4a00d11b0f3,
        type: 3}
      propertyPath: m_LocalScale.x
      value: 50
      objectReference: {fileID: 0}
    - target: {fileID: -4216859302048453862, guid: 04b48ac95ed5c634f8d9a4a00d11b0f3,
        type: 3}
      propertyPath: m_LocalScale.y
      value: 50
      objectReference: {fileID: 0}
    - target: {fileID: -4216859302048453862, guid: 04b48ac95ed5c634f8d9a4a00d11b0f3,
        type: 3}
      propertyPath: m_LocalScale.z
      value: 50
      objectReference: {fileID: 0}
    - target: {fileID: 5558600266303868963, guid: 04b48ac95ed5c634f8d9a4a00d11b0f3,
        type: 3}
      propertyPath: m_Materials.Array.data[0]
      value: 
      objectReference: {fileID: 2100000, guid: 733cb2c9e724d1f41b7188378ce7c221, type: 2}
    m_RemovedComponents: []
  m_SourcePrefab: {fileID: 100100000, guid: 04b48ac95ed5c634f8d9a4a00d11b0f3, type: 3}
--- !u!4 &9116827971314920474 stripped
Transform:
  m_CorrespondingSourceObject: {fileID: -4216859302048453862, guid: 04b48ac95ed5c634f8d9a4a00d11b0f3,
    type: 3}
  m_PrefabInstance: {fileID: 4323401156942071552}
  m_PrefabAsset: {fileID: 0}
--- !u!1 &881437580927008943 stripped
GameObject:
  m_CorrespondingSourceObject: {fileID: 4018531095126345647, guid: 04b48ac95ed5c634f8d9a4a00d11b0f3,
    type: 3}
  m_PrefabInstance: {fileID: 4323401156942071552}
  m_PrefabAsset: {fileID: 0}
